1
2
3
4
5
6
11
12
13
14
15
16
17
18
19
20
21
22
23
24
25
26
27
28
29
30
31
35
37
41
42
43
44
45
46
47
48
49
50
52
53
54
56
58
59
60
61
62
63
64
65
66
67
69
70
71
72
73
74
75
76
77
78
79
81
82
83
84
85
86
87
88
89
90
91
93
94
95
96
98
100
101
103
104
105
106
107
108
109
110
112
113
117
118
119
120
1002
1003
1004
1005
1006
1007
1008
1009
1010
1011
1012
1013
1014
1015
1016
1017
1018
1019
1020
1022
1023
1024
1025
1026
1027
1028
1029
1030
1031
1032
1033
1034
1035
1036
1037
1038
1039
1040
1041
1042
1043
1044
1045
1046
1047
1048
